<svg xmlns="http://www.w3.org/2000/svg" viewBox="0 0 63.803 63.803">
  <defs>
    <style>
      .cls-1 {
        fill: #8b8060;
      }

      .cls-2 {
        fill: #840101;
      }
    </style>
  </defs>
  <g id="tools" transform="translate(-92.166 -952.166)">
    <circle id="Ellipse_2" data-name="Ellipse 2" class="cls-1" cx="13.175" cy="13.175" r="13.175" transform="translate(120.53 973.942)"/>
    <g id="review" transform="translate(92.166 952.166)">
      <g id="Group_442" data-name="Group 442">
        <g id="Group_441" data-name="Group 441">
          <path id="Path_2548" data-name="Path 2548" class="cls-2" d="M63.8,13.292A3.988,3.988,0,0,0,59.815,9.3H54.5v2.658h5.317a1.329,1.329,0,0,1,1.329,1.329V48.768l-6.625-6.625a14.923,14.923,0,0,0-2.471-17.835c-.069-.069-.139-.136-.209-.2V1.329A1.329,1.329,0,0,0,50.51,0H22.6a1.33,1.33,0,0,0-.21.018l-.046.007-.06.015c-.022.005-.045.01-.067.017l-.042.015c-.027.009-.054.018-.081.029l-.032.015c-.029.013-.058.026-.086.041l-.029.017c-.028.016-.056.032-.083.049l-.042.031c-.021.015-.042.03-.063.047s-.067.058-.1.089l-9.3,9.3a1.329,1.329,0,0,0-.389.94V37.218H9.3v2.659H27.452A14.919,14.919,0,0,0,48.8,47.866l3.97,3.974H3.988A1.329,1.329,0,0,1,2.658,50.51V13.292a1.329,1.329,0,0,1,1.329-1.329H9.3V9.3H3.988A3.988,3.988,0,0,0,0,13.292V50.511A3.988,3.988,0,0,0,3.988,54.5H23.2c-.647,6.39-5.949,6.64-6.581,6.646a1.329,1.329,0,0,0,0,2.659H47.187a1.329,1.329,0,1,0,0-2.659c-.25,0-5.906-.081-6.58-6.646H55.421l1.474,1.475a4.048,4.048,0,0,0,6.9-2.8H63.8ZM40.793,61.144H23.01A10.524,10.524,0,0,0,25.922,54.5H37.881A10.523,10.523,0,0,0,40.793,61.144ZM14.621,37.218V11.184l6.646-6.646V9.3H18.609v2.658H22.6a1.329,1.329,0,0,0,1.329-1.329V2.658H49.181v19.41a14.932,14.932,0,0,0-13.844-.8H18.609v2.658H31.35A14.972,14.972,0,0,0,28.3,27.914H18.609v2.658h8.6a15,15,0,0,0-.438,6.646H14.621Zm14.623-2.362a12.258,12.258,0,1,1,20.98,8.611l-.113.112a12.257,12.257,0,0,1-20.868-8.723Zm23.785,9.57,1.96,1.96L53.026,48.35l-1.96-1.96ZM58.776,54.1l-3.87-3.87,1.963-1.963,3.87,3.87a1.386,1.386,0,0,1,.405.975v.013a1.387,1.387,0,0,1-2.369.975Z"/>
          <path id="Path_2549" data-name="Path 2549" class="cls-2" d="M279.232,206.423l1.88,1.88a6.832,6.832,0,0,1,9.65,0l1.88-1.88A9.493,9.493,0,0,0,279.232,206.423Z" transform="translate(-244.436 -178.273)"/>
          <path id="Path_2550" data-name="Path 2550" class="cls-2" d="M42.667,341.333v5.317A1.329,1.329,0,0,0,44,347.979h5.317v-2.658H45.325v-3.988H42.667Z" transform="translate(-37.35 -298.798)"/>
          <rect id="Rectangle_351" data-name="Rectangle 351" class="cls-2" width="2.658" height="2.658" transform="translate(14.621 46.523)"/>
          <rect id="Rectangle_352" data-name="Rectangle 352" class="cls-2" width="26.584" height="2.658" transform="translate(18.609 14.621)"/>
        </g>
      </g>
    </g>
  </g>
</svg>
